{
  "type": "service_account",
  "project_id": "hability-297100",
  "private_key_id": "ed21bbcac13a90510561c0d12ede7bb5e4af84d8",
  "private_key": "-----BEGIN PRIVATE KEY-----\nMIIEvgIBADANBgkqhkiG9w0BAQEFAASCBKgwggSkAgEAAoIBAQDIlWoZ4r9t/HpJ\nzOw05f3ERKPJg/7PdSThpR68PjHNnxTNpWpe9q3xWzugwVJaqPS0DoKac7Hu/4md\n+22NxKqnBKPazcpdJqqCIKvAz9qos4QbRu5gVOtkmnDofnr72HxBoStznW6TGnUa\ncKhb9BiSLoSt3wZRS6TBlRBETezbt4T5VpO8Dl0VyfTsSOpZVtmnB3hSTMSRUVim\nElJ4EPN8LKTwR6MEMSdnuCVOKz40C4z+Ch0Yb48B25Bq1414UtAvxRVJtpQuIdXf\nUgLTIVGu+9uTsTxKpKtBymwB+1wL6N6HHoXgJRTZM+FhnroY+IGoYR2EQU6/8pUz\n4NAO5aQtAgMBAAECggEALrK4fbfQVQEpkEp8+JDODJZlYmpQVcjCUiVA21cIfcRq\nUblP4zV/iBgzMOkpLPG2bMAPEHnchFWqWqU5W37csx8trahpE1hH7J1CF1Tc5ZdL\nq5UPNM64cdbR8BLYO49qWFY3OUa/AlDvz/zH+YaB/PCHE7q/bAhWHnp/i8NvoDQ3\nUxUTK5s5XeaJdchVNHTyUXzpEfG80fPM/lSJcHOAG3tSJ8aVJQsLtwnMWcUnxEOB\nzZtQA15km3IKgVpqbug1miyiVmN2NJcUPWmkKmb8ZaDRtY1mmHUNkM9UjDPp8DTG\n8t4kB2bUnssrHKheZ6hjovmTd5TEzYHUEVBTgBTCKQKBgQDrOA/CoQRvYO5cFU+9\ngnMMXXrzR7O9/vmrQn0ozuAu7W9+4XT+gWN63XVV7AQPtHdVNiivA76lAmwuJpuy\nxH2vUVXbnTPSTIWSTNNMygtB4eJ0LUV8cZWtz9shEgHnWK1nn3XFAKr1kZRgLyF2\nlJEXGAaQEwO3pCZLuNRUTV7WuQKBgQDaTgG9gniCziYKbqhJciMwq7pS2fO++rod\n6S4J1jU1een3LoaWcLAfepPCV15gq9PKO6QT8tnHNNV8NSjnDNS4qzkTvvqNofLT\njCedAXH+ZEbp6rmMVRLDx7dBYa6YyuUAxBzcg7w+zeIB3W+Z1UEChggN5iXygzAw\nNcbivjq/FQKBgCjdko9j3htjocXJxhLMqSRK0WOW33lw5PuGD6yZVIWSpr5KeUMG\nQ7xC4XHOEV6RIfJh+Gt/oQ2WACl8d6x1Ssi8vsfq5efxd3tVcZhzucT2c5tvihT2\nvuR1qkJymHYTB/1qzNEvLoR/iGG1joDFiveSKwG46/ppwGWDdRA4aPOxAoGBAMyk\n68S3ljko/0gwS9nuAUcS9OvOHU0exXJcsSfPgrnKu6VYHBrTMIeR5Qn91R9SdIvU\nNQ/uTHEN+kMhomJWCOPEvxDfqwkyk+v0Kv5n6HDNmByYSbBf3+NgSU4lQAND0EFT\nlqqxY7qMTh3pc0EGRJcVBl/hLBmXGYlYIEVWhsOxAoGBAKLOxor5uzVzaDvXb4iL\nA83bCiulVuR1dqTxpS+RSycPwnXhh1/EqBPFMR2Xpn7Iok+FLY416qnI+qBc+jTk\nBqW0nqCg1AK+01rFr1jFemKAFbOganKd7VYiuW9qvzc1qlX5LC4fCjaXn/nycN1B\nbbW1SHMhBF9JzkNTzi0tvRTQ\n-----END PRIVATE KEY-----\n",
  "client_email": "bitbucket@hability-297100.iam.gserviceaccount.com",
  "client_id": "111307990844136233361",
  "auth_uri": "https://accounts.google.com/o/oauth2/auth",
  "token_uri": "https://oauth2.googleapis.com/token",
  "auth_provider_x509_cert_url": "https://www.googleapis.com/oauth2/v1/certs",
  "client_x509_cert_url": "https://www.googleapis.com/robot/v1/metadata/x509/bitbucket%40hability-297100.iam.gserviceaccount.com"
}
